…
### Across the United States, which types of events have the greatest economic consequences?


```r
df %>% 
    group_by(evtype) %>% 
    summarise(property = sum(propdmg * propdmgexp),
              crops = sum(cropdmg * cropdmgexp)) %>% 
    arrange(desc(property))
```

```
## # A tibble: 489 × 3
##    evtype                  property       crops
##    <chr>                      <dbl>       <dbl>
##  1 flood               150751456324 10853820100
##  2 hurricane (typhoon)  84656180010  5505292800
##  3 tornado              56937162897   414954710
##  4 storm surge/tide     47974149000      855000
##  5 flash flood          16140865011  1421317100
##  6 hail                 15732269877  3025954650
##  7 wildfire              7766963500   402281630
##  8 tropical storm        7703890550   678346000
##  9 winter storm          6688497260    26944000
## 10 ice storm             3944928310  5022113500
## # … with 479 more rows
```
…
